{
  "dropdowns": [
    {
      "label": "Helbredskategorier",
      "dropdownlist": [
        "Smerteproblem i kroppens øvre del (nakke, skulder, albue, hånd, mfl.)  ",
        "Smerteproblem i kroppens nedre del (lænderyg, hofte, knæ, ankel, mfl.)",
        "Psykisk helbredsproblem (stress, angst, depression, mfl.)",
        "Luftvejsproblemer (KOL, astma, mfl.)",
        "Hjerte- eller kredsløbsproblemer",
        "Neurologisk sygdom (eks. Sklerose)",
        "Underlivsproblem (symptomer om m. Graviditet, infektioner, mfl.)",
        "Symptomer fra fordøjelsessystem (marve-, bowel, ernæringsproblemer, mfl.)",
        "Symptomer fra en kræftsygdom"
      ]
    },
    {
      "label": "Udredningsydelser",
      "dropdownlist": [
        "Behandlingsydelser",
        "Motions-, trænings- /genoptræningsydelser",
        "Generelle sundhedsydelser",
        "Udredningsydelser"
      ]
    }
  ],
  "text": [
    {
      "label": "Vælg ud fra fritekst søgeord (eks. stress, lænderyg, osv.) :"
    }
  ],
  "searchlist": [
    {
      "heading": "STRESS OG TRIVSELSLINJEN",
      "teaser": "Leverandører",
      "image": "stress_trivsel.jpg",
      "details": [
        "Anonym rådgivning, hvis du mærker symptomer på stress, eller hvis du rammes af en livskrise.",
        "Du kan ringe om dig selv eller om én i din familie. Om problemer på arbejdet eller derhjemme."
      ]
    },
    {
      "heading": "Foredrag- Stress og trivsel",
      "teaser": "Leverandører",
      "image": "Undervisning.jpg",
      "details": [
        "Foredrag om stress og trivsel for virksomheden, herunder",
        "-Hvad er stress?",
        "-Hvorfor får man stress?",
        "-Hvordan kan man forebygge stress?",
        "-Hvem har hvilket ansvar, når stress skal håndteres?"
      ]
    }
  ]
}